<?xml version="1.0" standalone="no"?>
<!DOCTYPE svg PUBLIC "-//W3C//DTD SVG 1.1//EN" "http://www.w3.org/Graphics/SVG/1.1/DTD/svg11.dtd" >
<svg xmlns="http://www.w3.org/2000/svg">
<metadata>Generated by IcoMoon</metadata>
<defs>
<font id="icomoon" horiz-adv-x="1024">
<font-face units-per-em="1024" ascent="960" descent="-64" />
<missing-glyph horiz-adv-x="1024" />
<glyph unicode="&#x20;" horiz-adv-x="512" d="" />
<glyph unicode="&#xe900;" glyph-name="cart" d="M318.031 59.415c2.158 14.24-12.73 25.244-22.871 25.891-12.946 0.863-26.754-11.651-26.323-25.46 0.432-15.751 11.435-25.028 24.597-25.46 11.651-0.216 25.244 8.415 24.597 25.028zM789.468 58.984c0.432 14.24-10.572 24.597-22.223 26.107-15.751 1.942-26.97-11.22-27.833-23.734-0.863-13.593 9.709-26.323 24.381-26.539 14.024-0.432 25.028 10.572 25.676 24.381zM751.063 142.051c-1.51 0.216-2.805 0.863-4.315 0.863-109.391 0.432-219.213 0-329.035 0-34.953 0-69.691 0-104.644 0-1.942 0-3.668-0.216-5.61-0.432 0-0.432-0.216-0.863-0.216-1.295 3.452-1.295 6.904-2.373 10.141-3.668 3.452-1.295 7.12-2.373 10.141-4.099 5.178-2.805 10.141-5.826 14.887-9.278 3.021-2.158 5.394-4.962 7.767-7.767 4.099-4.962 8.415-10.141 12.083-15.535 1.942-2.805 3.236-6.257 4.531-9.709 1.942-5.178 4.531-10.357 5.394-15.966 1.079-6.689 0.647-13.593 0.863-20.497 0.216-7.552-2.373-14.456-3.884-21.792-0.647-3.236-2.373-6.041-3.668-9.062-1.726-3.668-3.668-7.336-6.041-10.572-2.805-3.884-6.257-7.767-9.493-11.22-6.041-6.257-13.377-11.004-20.713-15.535-3.884-2.373-8.415-3.236-12.514-4.962-10.141-3.668-20.497-4.315-31.070-3.021-5.61 0.647-11.22 2.158-16.829 3.668-7.767 1.942-14.887 5.826-21.145 10.572-6.904 4.962-13.377 10.572-17.908 18.124-2.589 4.315-6.041 8.415-8.199 12.946-2.158 4.099-3.236 8.63-4.531 12.946-3.021 9.062-3.452 18.555-3.236 28.049 0 7.552 1.726 15.103 4.315 22.008 2.805 7.336 6.904 14.024 11.435 20.282 4.099 5.826 9.278 11.004 14.456 15.966 3.452 3.021 7.983 5.178 11.867 7.552 3.452 1.942 6.904 3.884 10.572 5.826 0.863 0.432 2.158 0.432 3.236 0.863 3.236 1.079 6.473 2.373 9.709 3.452 0 0.432 0 0.647 0.216 0.863-1.726 0.216-3.668 0.863-5.394 0.863-10.357 0-20.713-0.216-31.070 0-5.178 0-10.788 0-15.535 1.51-10.572 3.236-19.85 8.63-24.165 20.066-3.452 8.846-2.373 17.477-1.51 26.323 0.647 5.61 3.452 10.788 5.394 16.182 11.004 29.991 39.916 58.687 61.276 81.342 2.589 2.805 5.394 5.61 8.199 8.199 3.021 3.236 5.394 6.904 5.178 11.435 0 4.962-1.079 9.925-1.942 14.887-0.216 1.51-0.647 3.021-0.863 4.315l-66.239 469.495c-0.647 3.884-1.295 7.552-1.942 11.435-0.863 4.962-4.315 7.983-8.63 9.278-52.861 17.908-118.237 26.539-172.824 43.368-6.041 1.942-12.298 3.668-17.908 6.689-3.236 1.726-5.61 5.61-7.983 8.846-2.805 4.099-3.884 8.415-3.884 12.946 0 3.236 0.432 6.473 1.295 9.709 1.079 4.099 3.884 7.983 7.336 11.22 8.415 7.767 18.34 7.983 28.48 5.826 4.315-0.863 8.63-1.942 12.946-3.021 54.156-14.24 147.796-30.638 194.616-49.193 4.962-1.942 9.278-5.178 11.867-9.925 4.099-7.552 6.041-15.751 6.473-24.381 0.216-5.394 1.942-10.788 2.589-16.182 0.647-5.178 1.079-10.572 1.726-15.751 1.079-8.846 2.373-17.692 3.452-26.323 1.079-6.904 2.158-14.024 3.021-20.929 0.432-3.236 1.942-4.531 5.394-4.747 180.807-10.788 361.831-23.949 542.638-36.032 12.73-0.863 25.244-2.158 37.974-3.021 7.12-0.432 14.24-0.432 21.36-0.863 13.809-0.863 27.402-1.942 41.21-2.805 5.178-0.432 10.572-0.432 15.751-0.647 8.846-0.432 17.692-0.863 26.539-1.51 4.962-0.216 9.709-0.647 14.456-1.079 9.062-1.079 18.34-1.51 27.186-3.668 5.394-1.295 10.357-4.962 13.593-10.357 2.805-4.531 3.884-9.493 3.884-14.24v-0.432c0-3.236-0.432-6.473-1.295-9.493-1.079-4.531-3.452-8.63-5.178-13.161-2.589-7.336-5.178-14.672-7.767-22.008-1.51-4.099-3.452-7.983-4.962-12.083-2.805-7.336-5.178-14.887-7.767-22.223-2.805-7.336-6.041-14.672-8.846-22.008-2.589-6.904-4.747-13.809-7.336-20.497-2.805-7.552-6.257-15.103-9.062-22.655-2.589-6.689-4.747-13.593-7.12-20.282-3.021-8.63-6.257-17.045-9.709-25.46-2.805-7.336-6.041-14.672-8.846-22.223-2.589-7.12-4.747-14.24-7.552-21.36-2.805-7.552-6.041-14.672-8.846-22.223-2.589-6.689-4.531-13.593-7.12-20.282-2.805-7.336-5.826-14.672-8.846-22.223-2.158-5.394-4.315-10.572-6.473-15.966-1.295-3.236-2.158-6.473-3.236-9.709-2.158-5.826-4.315-11.651-6.473-17.261-2.373-6.473-4.531-13.161-7.336-19.418s-5.826-12.514-9.278-18.555c-2.158-3.668-5.826-5.61-9.709-7.552-5.178-2.373-10.141-1.942-15.319-1.942-13.161 0-26.323 0.216-39.484 0.216-67.102 0-134.203-0.216-201.305-0.216-88.246 0-176.276 0-264.523 0-7.983 0-13.809-3.668-18.771-9.493-18.987-21.792-41.426-41.858-60.629-63.649-2.373-2.589-3.884-5.826-5.826-8.846 0.216-0.432 0.432-0.647 0.647-1.079 3.021 0 6.041 0 9.062 0 20.282 0 40.347 1.079 60.629-0.216 15.535-1.079 30.854-1.942 46.173-0.647 17.045 1.295 34.090 0.863 51.135 0.863 44.878 0.216 89.756 0 134.635 0 85.657-0.432 170.882-0.863 256.108-1.079 6.689 0 13.161-1.079 18.987-4.531 4.747-2.589 7.983-6.473 10.572-11.435 3.021-6.041 1.942-11.867 1.726-17.692-0.216-3.236-2.589-6.473-4.315-9.493-2.589-4.962-7.552-7.552-12.083-9.925-3.021-1.51-7.12-1.726-10.572-1.726-14.456-0.216-28.912 0-43.368-0.216-1.942 0-3.668-0.432-5.61-0.432 0-0.432-0.216-0.863-0.432-1.295 1.295-0.647 2.373-1.942 3.668-2.158 10.572-1.942 19.85-6.904 28.696-12.946 6.904-4.747 12.73-10.788 17.477-17.261 3.236-4.531 5.826-9.493 8.415-14.456 3.668-7.336 6.257-14.887 6.904-23.086 0.432-4.962 1.51-9.709 1.51-14.456 0-4.531-1.295-9.278-2.158-13.809-1.079-4.962-2.158-10.141-4.315-14.672-3.021-6.473-6.904-12.514-11.004-18.34-3.452-4.747-7.552-8.846-11.867-12.73-3.452-3.021-7.767-5.178-11.651-7.767-3.452-2.158-6.904-4.099-10.572-5.826-1.079-0.647-2.589-0.647-3.884-1.079-12.298-4.531-24.812-5.394-37.758-2.805-5.178 1.079-10.572 1.51-15.319 3.668-6.904 3.236-14.024 6.257-19.85 11.435-4.099 3.884-8.846 7.336-12.73 11.435-3.021 3.236-5.394 6.904-7.336 10.788-3.452 6.473-6.257 13.161-9.278 19.85-0.863 1.942-0.647 4.315-1.079 6.473-0.647 6.041-1.942 12.298-1.942 18.34 0.216 6.473 0.863 12.946 2.805 19.203 1.942 6.473 5.178 12.298 7.983 18.34 4.531 9.925 12.083 17.692 20.282 24.381 5.394 4.531 11.867 7.767 18.34 10.788 5.394 2.589 11.435 4.315 17.261 6.473 0 0.216 0 0.432 0.216 0.863z" />
<glyph unicode="&#xe901;" glyph-name="mail" d="M933.664 83.989c28.055 0 54.987 13.466 72.101 35.63l1.122 1.403 1.403 1.122c1.122 0.842 1.964 1.683 2.525 2.244 2.525 3.086 4.208 6.453 5.892 13.466 5.33 12.064 7.855 25.249 7.294 38.996v542.58c0 22.444-7.855 43.765-25.249 64.526-1.122 1.122-2.244 2.244-5.33 4.489-17.113 15.43-39.277 23.847-62.282 23.847h-838.558c-51.621 0-92.581-41.241-92.581-92.581v-542.58c0-11.502 1.964-22.724 6.172-33.385l0.842-2.244v-2.244c0-5.33 1.964-10.1 5.611-13.747 1.403-1.403 3.086-3.086 5.050-4.208l1.683-1.122 1.403-1.683c17.675-21.883 44.046-33.946 72.101-33.946h841.083zM943.483 130.279c-3.928-1.122-8.136-1.683-12.064-1.683h-838.558c-3.367 0-6.733 0.281-10.1 1.122l-23.566 5.33 321.788 305.797 118.111-104.644c4.489-4.489 8.136-5.611 14.308-5.611 4.208 0 12.344 4.489 15.15 6.453l115.866 102.681 321.508-303.553-22.444-6.172zM677.243 468.901l302.431 267.362v-552.679l-302.431 285.317zM44.327 183.584v554.643l303.272-268.484-303.272-286.159zM77.431 767.404h871.101l-435.41-384.912-435.41 384.912z" />
<glyph unicode="&#xe902;" glyph-name="next" d="M774.115 468.413l-483.056 483.056c-11.374 11.374-29.614 11.374-40.988 0s-11.374-29.614 0-40.988l462.455-462.455-462.455-462.455c-11.374-11.374-11.374-29.614 0-40.988 5.58-5.58 13.090-8.584 20.387-8.584s14.807 2.79 20.387 8.584l483.056 483.056c11.374 11.159 11.374 29.614 0.215 40.773z" />
<glyph unicode="&#xe903;" glyph-name="next-double" d="M659.477 443.83l-423.558 516.17h-183.030l423.558-516.17-416.974-507.83h183.030l416.974 507.83zM971.549 443.83l-423.558 516.17h-183.030l423.558-516.17-416.974-507.83h183.030l416.974 507.83z" />
<glyph unicode="&#xe904;" glyph-name="phone" d="M883.915 442.41h-51.956c0 170.338-138.769 309.107-309.107 309.107v51.956c199.276 0 361.064-161.788 361.064-361.064zM522.852 713.372v-51.956c121.012 0 219.006-97.994 219.006-219.006h51.956c0 149.292-121.67 270.962-270.962 270.962zM512.329 960c-282.143 0-512.329-229.529-512.329-512.329 0-282.143 229.529-512.329 512.329-512.329 17.757 0 31.568 13.811 31.568 31.568s-13.811 31.568-31.568 31.568c-247.286 0-448.534 201.249-448.534 448.534s201.249 448.534 448.534 448.534c247.286 0 448.534-201.249 448.534-448.534 0-103.255-55.245-205.852-133.508-249.259-28.938-15.784-59.848-23.676-92.732-23.676 19.73 11.838 36.83 27.622 49.983 48.010 2.631 3.946 5.919 7.234 7.234 11.18 10.523 24.334 11.18 52.614 17.1 78.921 7.892 33.541-146.004 98.651-159.157 56.56-4.604-15.127-12.496-63.794-21.703-76.948-8.55-11.18-29.595-5.919-43.407 5.261-34.857 29.595-74.317 73.66-108.516 108.516-0.658 0.658-1.973 1.973-2.631 2.631s-1.973 1.973-2.631 2.631c-34.857 34.199-78.263 73.002-108.516 108.516-11.18 13.154-16.442 34.857-5.261 43.407 13.154 9.865 61.821 17.1 76.948 21.703 41.434 13.154-23.676 167.049-57.218 159.157-26.307-5.919-53.929-7.234-78.921-17.1-4.604-1.973-7.234-5.261-11.18-7.234-87.471-55.902-99.309-190.726-13.154-291.35 32.884-38.145 66.425-75.633 101.282-111.805v0c0.658-0.658 1.973-1.973 3.288-2.631s1.973-1.973 2.631-3.288h0.658c36.172-34.857 79.579-86.813 149.292-133.508 147.319-98.651 260.439-71.029 327.522-34.199 115.093 63.137 166.392 198.618 166.392 304.504 0 282.8-229.529 512.329-512.329 512.329z" />
<glyph unicode="&#xe905;" glyph-name="zoom" d="M999.502 9.592l-229.73 229.73c67.948 76.658 110.51 176.273 110.51 286.502-0.036 239.427-194.822 434.177-434.249 434.177-239.391 0-434.177-194.75-434.177-434.177 0-239.357 194.786-434.107 434.177-434.107 98.134 0 187.663 33.922 260.478 88.965l231.987-232.056c8.463-8.427 19.463-12.624 30.5-12.624s22.075 4.196 30.502 12.624c16.856 16.818 16.856 44.11 0.002 60.966zM98.106 525.823c0 191.823 156.104 347.963 347.963 347.963 191.895 0 347.963-156.102 347.963-347.963s-156.068-347.858-347.963-347.858c-191.859 0-347.963 155.999-347.963 347.858z" />
<glyph unicode="&#xe906;" glyph-name="clip" d="M990.82 480.442l-459.083-459.044c-113.918-113.862-299.226-113.862-413.116 0-113.925 113.914-113.925 299.221 0 413.135l459.042 458.993c88.579 88.632 232.734 88.632 321.371 0 88.558-88.562 88.558-232.728 0-321.292l-366.539-366.426c-30.526-31.001-71.312-48.118-114.903-48.304-87.070-0.381-163.248 75.688-162.929 162.927 0.154 43.488 17.374 84.313 48.311 114.862l366.494 366.438 45.898-45.896-367.248-367.198c-18.292-18.324-28.439-42.52-28.533-68.465-0.225-52.303 45.457-97.998 97.758-97.758 25.9 0.069 50.214 10.211 68.497 28.533l367.286 367.192c63.272 63.265 63.272 166.219 0 229.497-63.34 63.265-166.285 63.265-229.555 0l-459.053-458.999c-88.598-88.558-88.598-232.723 0-321.349 88.568-88.568 232.728-88.568 321.322 0l459.093 459.050 45.885-45.896z" />
<glyph unicode="&#xe907;" glyph-name="back" d="M311.568 448.027l462.455 462.455c11.374 11.374 11.374 29.614 0 40.988s-29.614 11.374-40.988 0l-483.056-483.056c-11.374-11.374-11.374-29.614 0-40.988l483.056-482.842c5.58-5.58 13.090-8.584 20.387-8.584s14.807 2.79 20.387 8.584c11.374 11.374 11.374 29.614 0 40.988l-462.24 462.455z" />
<glyph unicode="&#xe908;" glyph-name="vbo" horiz-adv-x="2506" d="M2505.532 448.156c0-165.828-40.91-292.307-122.419-378.812s-200.805-129.914-357.889-129.914c-154.898 0-273.569 43.721-356.327 130.539-24.359 25.608-44.97 54.651-62.146 87.442-14.99-50.592-44.97-92.751-89.316-127.104-67.143-51.528-158.957-77.137-275.131-77.137h-384.121v677.365l-221.728-677.365h-314.167l-321.975 987.16h299.802l134.286-500.294c27.794-111.177 43.097-188.625 45.907-232.034 3.123 31.229 9.369 70.891 19.050 118.047 9.369 47.156 17.801 84.319 24.983 111.489l137.097 502.793h541.517c134.286 0 233.596-19.674 298.865-59.648 58.087-35.601 90.253-88.691 96.499-158.957 18.738 39.661 42.16 74.326 70.578 104.618 82.446 86.818 201.742 129.914 358.513 129.914 157.084 0 276.068-43.097 356.952-128.977 81.196-85.881 121.795-212.36 121.795-378.812zM1545.541 422.548c-0.312 8.744-0.312 17.801-0.312 26.857 0 33.415 1.561 65.582 4.997 95.874-27.482-34.977-63.083-57.462-106.18-68.080v-6.558c41.535-10.93 75.575-26.857 101.495-48.093zM1124.569 561.831h80.572c38.412 0 67.768 7.807 88.691 23.422 20.924 15.927 31.229 39.037 31.229 70.266 0 55.276-41.847 83.070-125.542 83.070h-74.95v-176.758zM1124.569 366.648v-207.363h93.688c83.382 0 124.917 34.977 124.917 105.243 0 32.791-10.93 58.087-33.415 75.575-22.173 17.488-54.339 26.233-96.811 26.233h-88.379zM1825.981 448.156c0-190.811 66.519-286.373 199.243-286.373 67.455 0 117.422 23.422 150.213 69.641 32.479 46.219 48.718 118.672 48.718 216.732 0 98.685-16.552 171.449-49.655 218.606s-82.446 70.578-148.339 70.578c-133.974 0-200.805-96.499-200.805-289.184z" />
<glyph unicode="&#xe909;" glyph-name="funnel" d="M362.091-21.119v502.28l-351.11 406.637c-18.791 23.013-16.679 70.306 31.881 70.306h936.575c45.604 0 56.161-41.804 31.881-70.306l-342.665-395.87v-310.784c0-12.668-4.223-23.435-14.99-31.881l-219.153-202.263c-25.336-18.791-72.418-8.656-72.418 31.881zM136.604 872.807l300.228-346.887c6.334-8.445 10.557-17.102 10.557-27.658v-423.528l136.179 123.511v308.462c0 10.557 4.223 19.213 10.557 27.658l291.571 338.442h-749.091z" />
</font></defs></svg>